chipscope/sha1_wf_hash.vcd
$date
   Dec 14, 2013 10:03:47
$end
$version
   ChipScope Pro Analyzer  14.7 P.20131013 (Build 14700.13.286.464)
$end
$timescale
    1ns
$end

$scope module new_project $end
$var wire  1  n0 processing_system7_0.M_AXI_GP0/MON_AXI_ARADDR[0] $end
$var wire  1  n1 processing_system7_0.M_AXI_GP0/MON_AXI_ARADDR[1] $end
$var wire  1  n2 processing_system7_0.M_AXI_GP0/MON_AXI_ARADDR[2] $end
$var wire  1  n3 processing_system7_0.M_AXI_GP0/MON_AXI_ARADDR[3] $end
$var wire  1  n4 processing_system7_0.M_AXI_GP0/MON_AXI_ARADDR[4] $end
$var wire  1  n5 processing_system7_0.M_AXI_GP0/MON_AXI_ARADDR[5] $end
$var wire  1  n6 processing_system7_0.M_AXI_GP0/MON_AXI_ARADDR[6] $end
$var wire  1  n7 processing_system7_0.M_AXI_GP0/MON_AXI_ARADDR[7] $end
$var wire  1  n8 processing_system7_0.M_AXI_GP0/MON_AXI_ARADDR[8] $end
$var wire  1  n9 processing_system7_0.M_AXI_GP0/MON_AXI_ARADDR[9] $end
$var wire  1  n10 processing_system7_0.M_AXI_GP0/MON_AXI_ARADDR[10] $end
$var wire  1  n11 processing_system7_0.M_AXI_GP0/MON_AXI_ARADDR[11] $end
$var wire  1  n12 processing_system7_0.M_AXI_GP0/MON_AXI_ARADDR[12] $end
$var wire  1  n13 processing_system7_0.M_AXI_GP0/MON_AXI_ARADDR[13] $end
$var wire  1  n14 processing_system7_0.M_AXI_GP0/MON_AXI_ARADDR[14] $end
$var wire  1  n15 processing_system7_0.M_AXI_GP0/MON_AXI_ARADDR[15] $end
$var wire  1  n16 processing_system7_0.M_AXI_GP0/MON_AXI_ARADDR[16] $end
$var wire  1  n17 processing_system7_0.M_AXI_GP0/MON_AXI_ARADDR[17] $end
$var wire  1  n18 processing_system7_0.M_AXI_GP0/MON_AXI_ARADDR[18] $end
$var wire  1  n19 processing_system7_0.M_AXI_GP0/MON_AXI_ARADDR[19] $end
$var wire  1  n20 processing_system7_0.M_AXI_GP0/MON_AXI_ARADDR[20] $end
$var wire  1  n21 processing_system7_0.M_AXI_GP0/MON_AXI_ARADDR[21] $end
$var wire  1  n22 processing_system7_0.M_AXI_GP0/MON_AXI_ARADDR[22] $end
$var wire  1  n23 processing_system7_0.M_AXI_GP0/MON_AXI_ARADDR[23] $end
$var wire  1  n24 processing_system7_0.M_AXI_GP0/MON_AXI_ARADDR[24] $end
$var wire  1  n25 processing_system7_0.M_AXI_GP0/MON_AXI_ARADDR[25] $end
$var wire  1  n26 processing_system7_0.M_AXI_GP0/MON_AXI_ARADDR[26] $end
$var wire  1  n27 processing_system7_0.M_AXI_GP0/MON_AXI_ARADDR[27] $end
$var wire  1  n28 processing_system7_0.M_AXI_GP0/MON_AXI_ARADDR[28] $end
$var wire  1  n29 processing_system7_0.M_AXI_GP0/MON_AXI_ARADDR[29] $end
$var wire  1  n30 processing_system7_0.M_AXI_GP0/MON_AXI_ARADDR[30] $end
$var wire  1  n31 processing_system7_0.M_AXI_GP0/MON_AXI_ARADDR[31] $end
$var wire  1  n32 processing_system7_0.M_AXI_GP0/MON_AXI_ARBURST[0] $end
$var wire  1  n33 processing_system7_0.M_AXI_GP0/MON_AXI_ARBURST[1] $end
$var wire  1  n34 processing_system7_0.M_AXI_GP0/MON_AXI_ARCACHE[0] $end
$var wire  1  n35 processing_system7_0.M_AXI_GP0/MON_AXI_ARCACHE[1] $end
$var wire  1  n36 processing_system7_0.M_AXI_GP0/MON_AXI_ARCACHE[2] $end
$var wire  1  n37 processing_system7_0.M_AXI_GP0/MON_AXI_ARCACHE[3] $end
$var wire  1  n38 processing_system7_0.M_AXI_GP0/MON_AXI_ARID[0] $end
$var wire  1  n39 processing_system7_0.M_AXI_GP0/MON_AXI_ARID[1] $end
$var wire  1  n40 processing_system7_0.M_AXI_GP0/MON_AXI_ARID[2] $end
$var wire  1  n41 processing_system7_0.M_AXI_GP0/MON_AXI_ARID[3] $end
$var wire  1  n42 processing_system7_0.M_AXI_GP0/MON_AXI_ARID[4] $end
$var wire  1  n43 processing_system7_0.M_AXI_GP0/MON_AXI_ARID[5] $end
$var wire  1  n44 processing_system7_0.M_AXI_GP0/MON_AXI_ARID[6] $end
$var wire  1  n45 processing_system7_0.M_AXI_GP0/MON_AXI_ARID[7] $end
$var wire  1  n46 processing_system7_0.M_AXI_GP0/MON_AXI_ARID[8] $end
$var wire  1  n47 processing_system7_0.M_AXI_GP0/MON_AXI_ARID[9] $end
$var wire  1  n48 processing_system7_0.M_AXI_GP0/MON_AXI_ARID[10] $end
$var wire  1  n49 processing_system7_0.M_AXI_GP0/MON_AXI_ARID[11] $end
$var wire  1  n50 processing_system7_0.M_AXI_GP0/MON_AXI_ARLEN[0] $end
$var wire  1  n51 processing_system7_0.M_AXI_GP0/MON_AXI_ARLEN[1] $end
$var wire  1  n52 processing_system7_0.M_AXI_GP0/MON_AXI_ARLEN[2] $end
$var wire  1  n53 processing_system7_0.M_AXI_GP0/MON_AXI_ARLEN[3] $end
$var wire  1  n54 processing_system7_0.M_AXI_GP0/MON_AXI_ARLEN[4] $end
$var wire  1  n55 processing_system7_0.M_AXI_GP0/MON_AXI_ARLEN[5] $end
$var wire  1  n56 processing_system7_0.M_AXI_GP0/MON_AXI_ARLEN[6] $end
$var wire  1  n57 processing_system7_0.M_AXI_GP0/MON_AXI_ARLEN[7] $end
$var wire  1  n58 processing_system7_0.M_AXI_GP0/MON_AXI_ARLOCK[0] $end
$var wire  1  n59 processing_system7_0.M_AXI_GP0/MON_AXI_ARPROT[0] $end
$var wire  1  n60 processing_system7_0.M_AXI_GP0/MON_AXI_ARPROT[1] $end
$var wire  1  n61 processing_system7_0.M_AXI_GP0/MON_AXI_ARPROT[2] $end
$var wire  1  n62 processing_system7_0.M_AXI_GP0/MON_AXI_ARREADY $end
$var wire  1  n63 processing_system7_0.M_AXI_GP0/MON_AXI_ARSIZE[0] $end
$var wire  1  n64 processing_system7_0.M_AXI_GP0/MON_AXI_ARSIZE[1] $end
$var wire  1  n65 processing_system7_0.M_AXI_GP0/MON_AXI_ARSIZE[2] $end
$var wire  1  n66 processing_system7_0.M_AXI_GP0/MON_AXI_ARVALID $end
$var wire  1  n67 processing_system7_0.M_AXI_GP0/MON_AXI_AWADDR[0] $end
$var wire  1  n68 processing_system7_0.M_AXI_GP0/MON_AXI_AWADDR[1] $end
$var wire  1  n69 processing_system7_0.M_AXI_GP0/MON_AXI_AWADDR[2] $end
$var wire  1  n70 processing_system7_0.M_AXI_GP0/MON_AXI_AWADDR[3] $end
$var wire  1  n71 processing_system7_0.M_AXI_GP0/MON_AXI_AWADDR[4] $end
$var wire  1  n72 processing_system7_0.M_AXI_GP0/MON_AXI_AWADDR[5] $end
$var wire  1  n73 processing_system7_0.M_AXI_GP0/MON_AXI_AWADDR[6] $end
$var wire  1  n74 processing_system7_0.M_AXI_GP0/MON_AXI_AWADDR[7] $end
$var wire  1  n75 processing_system7_0.M_AXI_GP0/MON_AXI_AWADDR[8] $end
$var wire  1  n76 processing_system7_0.M_AXI_GP0/MON_AXI_AWADDR[9] $end
$var wire  1  n77 processing_system7_0.M_AXI_GP0/MON_AXI_AWADDR[10] $end
$var wire  1  n78 processing_system7_0.M_AXI_GP0/MON_AXI_AWADDR[11] $end
$var wire  1  n79 processing_system7_0.M_AXI_GP0/MON_AXI_AWADDR[12] $end
$var wire  1  n80 processing_system7_0.M_AXI_GP0/MON_AXI_AWADDR[13] $end
$var wire  1  n81 processing_system7_0.M_AXI_GP0/MON_AXI_AWADDR[14] $end
$var wire  1  n82 processing_system7_0.M_AXI_GP0/MON_AXI_AWADDR[15] $end
$var wire  1  n83 processing_system7_0.M_AXI_GP0/MON_AXI_AWADDR[16] $end
$var wire  1  n84 processing_system7_0.M_AXI_GP0/MON_AXI_AWADDR[17] $end
$var wire  1  n85 processing_system7_0.M_AXI_GP0/MON_AXI_AWADDR[18] $end
$var wire  1  n86 processing_system7_0.M_AXI_GP0/MON_AXI_AWADDR[19] $end
$var wire  1  n87 processing_system7_0.M_AXI_GP0/MON_AXI_AWADDR[20] $end
$var wire  1  n88 processing_system7_0.M_AXI_GP0/MON_AXI_AWADDR[21] $end
$var wire  1  n89 processing_system7_0.M_AXI_GP0/MON_AXI_AWADDR[22] $end
$var wire  1  n90 processing_system7_0.M_AXI_GP0/MON_AXI_AWADDR[23] $end
$var wire  1  n91 processing_system7_0.M_AXI_GP0/MON_AXI_AWADDR[24] $end
$var wire  1  n92 processing_system7_0.M_AXI_GP0/MON_AXI_AWADDR[25] $end
$var wire  1  n93 processing_system7_0.M_AXI_GP0/MON_AXI_AWADDR[26] $end
$var wire  1  n94 processing_system7_0.M_AXI_GP0/MON_AXI_AWADDR[27] $end
$var wire  1  n95 processing_system7_0.M_AXI_GP0/MON_AXI_AWADDR[28] $end
$var wire  1  n96 processing_system7_0.M_AXI_GP0/MON_AXI_AWADDR[29] $end
$var wire  1  n97 processing_system7_0.M_AXI_GP0/MON_AXI_AWADDR[30] $end
$var wire  1  n98 processing_system7_0.M_AXI_GP0/MON_AXI_AWADDR[31] $end
$var wire  1  n99 processing_system7_0.M_AXI_GP0/MON_AXI_AWBURST[0] $end
$var wire  1  n100 processing_system7_0.M_AXI_GP0/MON_AXI_AWBURST[1] $end
$var wire  1  n101 processing_system7_0.M_AXI_GP0/MON_AXI_AWCACHE[0] $end
$var wire  1  n102 processing_system7_0.M_AXI_GP0/MON_AXI_AWCACHE[1] $end
$var wire  1  n103 processing_system7_0.M_AXI_GP0/MON_AXI_AWCACHE[2] $end
$var wire  1  n104 processing_system7_0.M_AXI_GP0/MON_AXI_AWCACHE[3] $end
$var wire  1  n105 processing_system7_0.M_AXI_GP0/MON_AXI_AWID[0] $end
$var wire  1  n106 processing_system7_0.M_AXI_GP0/MON_AXI_AWID[1] $end
$var wire  1  n107 processing_system7_0.M_AXI_GP0/MON_AXI_AWID[2] $end
$var wire  1  n108 processing_system7_0.M_AXI_GP0/MON_AXI_AWID[3] $end
$var wire  1  n109 processing_system7_0.M_AXI_GP0/MON_AXI_AWID[4] $end
$var wire  1  n110 processing_system7_0.M_AXI_GP0/MON_AXI_AWID[5] $end
$var wire  1  n111 processing_system7_0.M_AXI_GP0/MON_AXI_AWID[6] $end
$var wire  1  n112 processing_system7_0.M_AXI_GP0/MON_AXI_AWID[7] $end
$var wire  1  n113 processing_system7_0.M_AXI_GP0/MON_AXI_AWID[8] $end
$var wire  1  n114 processing_system7_0.M_AXI_GP0/MON_AXI_AWID[9] $end
$var wire  1  n115 processing_system7_0.M_AXI_GP0/MON_AXI_AWID[10] $end
$var wire  1  n116 processing_system7_0.M_AXI_GP0/MON_AXI_AWID[11] $end
$var wire  1  n117 processing_system7_0.M_AXI_GP0/MON_AXI_AWLEN[0] $end
$var wire  1  n118 processing_system7_0.M_AXI_GP0/MON_AXI_AWLEN[1] $end
$var wire  1  n119 processing_system7_0.M_AXI_GP0/MON_AXI_AWLEN[2] $end
$var wire  1  n120 processing_system7_0.M_AXI_GP0/MON_AXI_AWLEN[3] $end
$var wire  1  n121 processing_system7_0.M_AXI_GP0/MON_AXI_AWLEN[4] $end
$var wire  1  n122 processing_system7_0.M_AXI_GP0/MON_AXI_AWLEN[5] $end
$var wire  1  n123 processing_system7_0.M_AXI_GP0/MON_AXI_AWLEN[6] $end
$var wire  1  n124 processing_system7_0.M_AXI_GP0/MON_AXI_AWLEN[7] $end
$var wire  1  n125 processing_system7_0.M_AXI_GP0/MON_AXI_AWLOCK[0] $end
$var wire  1  n126 processing_system7_0.M_AXI_GP0/MON_AXI_AWPROT[0] $end
$var wire  1  n127 processing_system7_0.M_AXI_GP0/MON_AXI_AWPROT[1] $end
$var wire  1  n128 processing_system7_0.M_AXI_GP0/MON_AXI_AWPROT[2] $end
$var wire  1  n129 processing_system7_0.M_AXI_GP0/MON_AXI_AWREADY $end
$var wire  1  n130 processing_system7_0.M_AXI_GP0/MON_AXI_AWSIZE[0] $end
$var wire  1  n131 processing_system7_0.M_AXI_GP0/MON_AXI_AWSIZE[1] $end
$var wire  1  n132 processing_system7_0.M_AXI_GP0/MON_AXI_AWSIZE[2] $end
$var wire  1  n133 processing_system7_0.M_AXI_GP0/MON_AXI_AWVALID $end
$var wire  1  n134 processing_system7_0.M_AXI_GP0/MON_AXI_BID[0] $end
$var wire  1  n135 processing_system7_0.M_AXI_GP0/MON_AXI_BID[1] $end
$var wire  1  n136 processing_system7_0.M_AXI_GP0/MON_AXI_BID[2] $end
$var wire  1  n137 processing_system7_0.M_AXI_GP0/MON_AXI_BID[3] $end
$var wire  1  n138 processing_system7_0.M_AXI_GP0/MON_AXI_BID[4] $end
$var wire  1  n139 processing_system7_0.M_AXI_GP0/MON_AXI_BID[5] $end
$var wire  1  n140 processing_system7_0.M_AXI_GP0/MON_AXI_BID[6] $end
$var wire  1  n141 processing_system7_0.M_AXI_GP0/MON_AXI_BID[7] $end
$var wire  1  n142 processing_system7_0.M_AXI_GP0/MON_AXI_BID[8] $end
$var wire  1  n143 processing_system7_0.M_AXI_GP0/MON_AXI_BID[9] $end
$var wire  1  n144 processing_system7_0.M_AXI_GP0/MON_AXI_BID[10] $end
$var wire  1  n145 processing_system7_0.M_AXI_GP0/MON_AXI_BID[11] $end
$var wire  1  n146 processing_system7_0.M_AXI_GP0/MON_AXI_BREADY $end
$var wire  1  n147 processing_system7_0.M_AXI_GP0/MON_AXI_BRESP[0] $end
$var wire  1  n148 processing_system7_0.M_AXI_GP0/MON_AXI_BRESP[1] $end
$var wire  1  n149 processing_system7_0.M_AXI_GP0/MON_AXI_BVALID $end
$var wire  1  n150 processing_system7_0.M_AXI_GP0/MON_AXI_ARESETN $end
$var wire  1  n151 processing_system7_0.M_AXI_GP0/MON_AXI_RDATA[0] $end
$var wire  1  n152 processing_system7_0.M_AXI_GP0/MON_AXI_RDATA[1] $end
$var wire  1  n153 processing_system7_0.M_AXI_GP0/MON_AXI_RDATA[2] $end
$var wire  1  n154 processing_system7_0.M_AXI_GP0/MON_AXI_RDATA[3] $end
$var wire  1  n155 processing_system7_0.M_AXI_GP0/MON_AXI_RDATA[4] $end
$var wire  1  n156 processing_system7_0.M_AXI_GP0/MON_AXI_RDATA[5] $end
$var wire  1  n157 processing_system7_0.M_AXI_GP0/MON_AXI_RDATA[6] $end
$var wire  1  n158 processing_system7_0.M_AXI_GP0/MON_AXI_RDATA[7] $end
$var wire  1  n159 processing_system7_0.M_AXI_GP0/MON_AXI_RDATA[8] $end
$var wire  1  n160 processing_system7_0.M_AXI_GP0/MON_AXI_RDATA[9] $end
$var wire  1  n161 processing_system7_0.M_AXI_GP0/MON_AXI_RDATA[10] $end
$var wire  1  n162 processing_system7_0.M_AXI_GP0/MON_AXI_RDATA[11] $end
$var wire  1  n163 processing_system7_0.M_AXI_GP0/MON_AXI_RDATA[12] $end
$var wire  1  n164 processing_system7_0.M_AXI_GP0/MON_AXI_RDATA[13] $end
$var wire  1  n165 processing_system7_0.M_AXI_GP0/MON_AXI_RDATA[14] $end
$var wire  1  n166 processing_system7_0.M_AXI_GP0/MON_AXI_RDATA[15] $end
$var wire  1  n167 processing_system7_0.M_AXI_GP0/MON_AXI_RDATA[16] $end
$var wire  1  n168 processing_system7_0.M_AXI_GP0/MON_AXI_RDATA[17] $end
$var wire  1  n169 processing_system7_0.M_AXI_GP0/MON_AXI_RDATA[18] $end
$var wire  1  n170 processing_system7_0.M_AXI_GP0/MON_AXI_RDATA[19] $end
$var wire  1  n171 processing_system7_0.M_AXI_GP0/MON_AXI_RDATA[20] $end
$var wire  1  n172 processing_system7_0.M_AXI_GP0/MON_AXI_RDATA[21] $end
$var wire  1  n173 processing_system7_0.M_AXI_GP0/MON_AXI_RDATA[22] $end
$var wire  1  n174 processing_system7_0.M_AXI_GP0/MON_AXI_RDATA[23] $end
$var wire  1  n175 processing_system7_0.M_AXI_GP0/MON_AXI_RDATA[24] $end
$var wire  1  n176 processing_system7_0.M_AXI_GP0/MON_AXI_RDATA[25] $end
$var wire  1  n177 processing_system7_0.M_AXI_GP0/MON_AXI_RDATA[26] $end
$var wire  1  n178 processing_system7_0.M_AXI_GP0/MON_AXI_RDATA[27] $end
$var wire  1  n179 processing_system7_0.M_AXI_GP0/MON_AXI_RDATA[28] $end
$var wire  1  n180 processing_system7_0.M_AXI_GP0/MON_AXI_RDATA[29] $end
$var wire  1  n181 processing_system7_0.M_AXI_GP0/MON_AXI_RDATA[30] $end
$var wire  1  n182 processing_system7_0.M_AXI_GP0/MON_AXI_RDATA[31] $end
$var wire  1  n183 processing_system7_0.M_AXI_GP0/MON_AXI_RID[0] $end
$var wire  1  n184 processing_system7_0.M_AXI_GP0/MON_AXI_RID[1] $end
$var wire  1  n185 processing_system7_0.M_AXI_GP0/MON_AXI_RID[2] $end
$var wire  1  n186 processing_system7_0.M_AXI_GP0/MON_AXI_RID[3] $end
$var wire  1  n187 processing_system7_0.M_AXI_GP0/MON_AXI_RID[4] $end
$var wire  1  n188 processing_system7_0.M_AXI_GP0/MON_AXI_RID[5] $end
$var wire  1  n189 processing_system7_0.M_AXI_GP0/MON_AXI_RID[6] $end
$var wire  1  n190 processing_system7_0.M_AXI_GP0/MON_AXI_RID[7] $end
$var wire  1  n191 processing_system7_0.M_AXI_GP0/MON_AXI_RID[8] $end
$var wire  1  n192 processing_system7_0.M_AXI_GP0/MON_AXI_RID[9] $end
$var wire  1  n193 processing_system7_0.M_AXI_GP0/MON_AXI_RID[10] $end
$var wire  1  n194 processing_system7_0.M_AXI_GP0/MON_AXI_RID[11] $end
$var wire  1  n195 processing_system7_0.M_AXI_GP0/MON_AXI_RLAST $end
$var wire  1  n196 processing_system7_0.M_AXI_GP0/MON_AXI_RREADY $end
$var wire  1  n197 processing_system7_0.M_AXI_GP0/MON_AXI_RRESP[0] $end
$var wire  1  n198 processing_system7_0.M_AXI_GP0/MON_AXI_RRESP[1] $end
$var wire  1  n199 RVALID $end
$var wire  1  n200 processing_system7_0.M_AXI_GP0/MON_AXI_WDATA[0] $end
$var wire  1  n201 processing_system7_0.M_AXI_GP0/MON_AXI_WDATA[1] $end
$var wire  1  n202 processing_system7_0.M_AXI_GP0/MON_AXI_WDATA[2] $end
$var wire  1  n203 processing_system7_0.M_AXI_GP0/MON_AXI_WDATA[3] $end
$var wire  1  n204 processing_system7_0.M_AXI_GP0/MON_AXI_WDATA[4] $end
$var wire  1  n205 processing_system7_0.M_AXI_GP0/MON_AXI_WDATA[5] $end
$var wire  1  n206 processing_system7_0.M_AXI_GP0/MON_AXI_WDATA[6] $end
$var wire  1  n207 processing_system7_0.M_AXI_GP0/MON_AXI_WDATA[7] $end
$var wire  1  n208 processing_system7_0.M_AXI_GP0/MON_AXI_WDATA[8] $end
$var wire  1  n209 processing_system7_0.M_AXI_GP0/MON_AXI_WDATA[9] $end
$var wire  1  n210 processing_system7_0.M_AXI_GP0/MON_AXI_WDATA[10] $end
$var wire  1  n211 processing_system7_0.M_AXI_GP0/MON_AXI_WDATA[11] $end
$var wire  1  n212 processing_system7_0.M_AXI_GP0/MON_AXI_WDATA[12] $end
$var wire  1  n213 processing_system7_0.M_AXI_GP0/MON_AXI_WDATA[13] $end
$var wire  1  n214 processing_system7_0.M_AXI_GP0/MON_AXI_WDATA[14] $end
$var wire  1  n215 processing_system7_0.M_AXI_GP0/MON_AXI_WDATA[15] $end
$var wire  1  n216 processing_system7_0.M_AXI_GP0/MON_AXI_WDATA[16] $end
$var wire  1  n217 processing_system7_0.M_AXI_GP0/MON_AXI_WDATA[17] $end
$var wire  1  n218 processing_system7_0.M_AXI_GP0/MON_AXI_WDATA[18] $end
$var wire  1  n219 processing_system7_0.M_AXI_GP0/MON_AXI_WDATA[19] $end
$var wire  1  n220 processing_system7_0.M_AXI_GP0/MON_AXI_WDATA[20] $end
$var wire  1  n221 processing_system7_0.M_AXI_GP0/MON_AXI_WDATA[21] $end
$var wire  1  n222 processing_system7_0.M_AXI_GP0/MON_AXI_WDATA[22] $end
$var wire  1  n223 processing_system7_0.M_AXI_GP0/MON_AXI_WDATA[23] $end
$var wire  1  n224 processing_system7_0.M_AXI_GP0/MON_AXI_WDATA[24] $end
$var wire  1  n225 processing_system7_0.M_AXI_GP0/MON_AXI_WDATA[25] $end
$var wire  1  n226 processing_system7_0.M_AXI_GP0/MON_AXI_WDATA[26] $end
$var wire  1  n227 processing_system7_0.M_AXI_GP0/MON_AXI_WDATA[27] $end
$var wire  1  n228 processing_system7_0.M_AXI_GP0/MON_AXI_WDATA[28] $end
$var wire  1  n229 processing_system7_0.M_AXI_GP0/MON_AXI_WDATA[29] $end
$var wire  1  n230 processing_system7_0.M_AXI_GP0/MON_AXI_WDATA[30] $end
$var wire  1  n231 processing_system7_0.M_AXI_GP0/MON_AXI_WDATA[31] $end
$var wire  1  n232 processing_system7_0.M_AXI_GP0/MON_AXI_WLAST $end
$var wire  1  n233 processing_system7_0.M_AXI_GP0/MON_AXI_WREADY $end
$var wire  1  n234 processing_system7_0.M_AXI_GP0/MON_AXI_WSTRB[0] $end
$var wire  1  n235 processing_system7_0.M_AXI_GP0/MON_AXI_WSTRB[1] $end
$var wire  1  n236 processing_system7_0.M_AXI_GP0/MON_AXI_WSTRB[2] $end
$var wire  1  n237 processing_system7_0.M_AXI_GP0/MON_AXI_WSTRB[3] $end
$var wire  1  n238 WVALID $end
$var wire 32 n239 ARADDR $end
$var wire 32 n240 AWADDR $end
$var wire 2 n241 processing_system7_0.M_AXI_GP0/MON_AXI_ARBURST $end
$var wire 4 n242 processing_system7_0.M_AXI_GP0/MON_AXI_ARCACHE $end
$var wire 12 n243 processing_system7_0.M_AXI_GP0/MON_AXI_ARID $end
$var wire 8 n244 processing_system7_0.M_AXI_GP0/MON_AXI_ARLEN $end
$var wire 3 n245 processing_system7_0.M_AXI_GP0/MON_AXI_ARPROT $end
$var wire 3 n246 processing_system7_0.M_AXI_GP0/MON_AXI_ARSIZE $end
$var wire 2 n247 processing_system7_0.M_AXI_GP0/MON_AXI_AWBURST $end
$var wire 4 n248 processing_system7_0.M_AXI_GP0/MON_AXI_AWCACHE $end
$var wire 12 n249 processing_system7_0.M_AXI_GP0/MON_AXI_AWID $end
$var wire 8 n250 processing_system7_0.M_AXI_GP0/MON_AXI_AWLEN $end
$var wire 3 n251 processing_system7_0.M_AXI_GP0/MON_AXI_AWPROT $end
$var wire 3 n252 processing_system7_0.M_AXI_GP0/MON_AXI_AWSIZE $end
$var wire 12 n253 processing_system7_0.M_AXI_GP0/MON_AXI_BID $end
$var wire 2 n254 processing_system7_0.M_AXI_GP0/MON_AXI_BRESP $end
$var wire 12 n255 processing_system7_0.M_AXI_GP0/MON_AXI_RID $end
$var wire 2 n256 processing_system7_0.M_AXI_GP0/MON_AXI_RRESP $end
$var wire 4 n257 processing_system7_0.M_AXI_GP0/MON_AXI_WSTRB $end
$var wire 32 n258 RDATA $end
$var wire 32 n259 WDATA $end
$upscope $end
$enddefinitions $end

#0
0n0
0n1
1n2
0n3
0n4
0n5
0n6
0n7
0n8
0n9
0n10
0n11
0n12
0n13
0n14
0n15
0n16
0n17
0n18
0n19
0n20
1n21
0n22
1n23
0n24
1n25
0n26
1n27
1n28
1n29
1n30
0n31
1n32
0n33
1n34
0n35
0n36
0n37
0n38
0n39
1n40
1n41
0n42
0n43
0n44
0n45
0n46
0n47
1n48
1n49
0n50
0n51
0n52
0n53
0n54
0n55
0n56
0n57
0n58
1n59
0n60
0n61
0n62
0n63
1n64
0n65
0n66
0n67
0n68
0n69
0n70
0n71
0n72
0n73
0n74
0n75
0n76
0n77
0n78
0n79
0n80
0n81
0n82
0n83
0n84
0n85
0n86
0n87
1n88
0n89
1n90
0n91
1n92
0n93
1n94
1n95
1n96
1n97
0n98
1n99
0n100
1n101
0n102
0n103
0n104
0n105
0n106
1n107
0n108
1n109
1n110
0n111
0n112
0n113
0n114
1n115
1n116
0n117
0n118
0n119
0n120
0n121
0n122
0n123
0n124
0n125
1n126
0n127
0n128
0n129
0n130
1n131
0n132
0n133
0n134
0n135
1n136
1n137
0n138
0n139
0n140
0n141
0n142
0n143
1n144
1n145
1n146
0n147
0n148
0n149
1n150
1n151
1n152
1n153
0n154
0n155
0n156
0n157
0n158
0n159
0n160
0n161
0n162
0n163
0n164
0n165
0n166
0n167
0n168
0n169
0n170
0n171
0n172
0n173
0n174
0n175
0n176
0n177
0n178
0n179
0n180
0n181
0n182
0n183
0n184
1n185
1n186
0n187
0n188
0n189
0n190
0n191
0n192
1n193
1n194
1n195
1n196
0n197
0n198
1n199
1n200
0n201
0n202
0n203
0n204
0n205
0n206
0n207
0n208
0n209
0n210
0n211
0n212
0n213
0n214
0n215
0n216
0n217
0n218
0n219
0n220
0n221
0n222
0n223
0n224
0n225
0n226
0n227
0n228
0n229
0n230
0n231
1n232
0n233
1n234
1n235
1n236
1n237
0n238
b1111010101000000000000000000100 n239
b1111010101000000000000000000000 n240
b1 n241
b1 n242
b110000001100 n243
b0 n244
b1 n245
b10 n246
b1 n247
b1 n248
b110000110100 n249
b0 n250
b1 n251
b10 n252
b110000001100 n253
b0 n254
b110000001100 n255
b0 n256
b1111 n257
b111 n258
b1 n259
#1
0n199
#2
0n137
1n138
1n139
0n186
1n187
1n188
b110000110100 n253
b110000110100 n255
#8
1n66
#9
1n137
0n138
0n139
1n186
0n187
0n188
b110000001100 n253
b110000001100 n255
#10
1n62
#11
0n62
0n66
#12
1n199
#13
0n199
#14
0n137
1n138
1n139
0n186
1n187
1n188
b110000110100 n253
b110000110100 n255
#20
1n66
#21
1n137
0n138
0n139
1n186
0n187
0n188
b110000001100 n253
b110000001100 n255
#22
1n62
#23
0n62
0n66
#24
1n199
#25
0n199
#26
0n137
1n138
1n139
0n186
1n187
1n188
b110000110100 n253
b110000110100 n255
#33
1n66
#34
1n137
0n138
0n139
1n186
0n187
0n188
b110000001100 n253
b110000001100 n255
#35
1n62
#36
0n62
0n66
#37
1n199
#38
0n199
#39
0n137
1n138
1n139
0n186
1n187
1n188
b110000110100 n253
b110000110100 n255
#45
1n66
#46
1n137
0n138
0n139
1n186
0n187
0n188
b110000001100 n253
b110000001100 n255
#47
1n62
#48
0n62
0n66
#49
1n199
#50
0n199
#51
0n137
1n138
1n139
0n186
1n187
1n188
b110000110100 n253
b110000110100 n255
#58
1n66
#59
1n137
0n138
0n139
1n186
0n187
0n188
b110000001100 n253
b110000001100 n255
#60
1n62
#61
0n62
0n66
#62
1n199
#63
0n199
#64
0n137
1n138
1n139
0n186
1n187
1n188
b110000110100 n253
b110000110100 n255
#71
1n66
#72
1n137
0n138
0n139
1n186
0n187
0n188
b110000001100 n253
b110000001100 n255
#73
1n62
#74
0n62
0n66
#75
0n153
1n199
b11 n258
#76
0n199
#77
0n137
1n138
1n139
0n186
1n187
1n188
b110000110100 n253
b110000110100 n255
#91
0n2
1n4
0n64
1n66
b1111010101000000000000000010000 n239
b0 n246
#92
1n137
0n138
0n139
1n186
0n187
0n188
b110000001100 n253
b110000001100 n255
#93
1n62
#94
0n62
0n66
#95
0n151
1n153
1n154
1n155
1n156
1n157
1n158
1n159
1n160
1n162
1n166
1n168
1n169
1n170
1n171
1n172
1n173
1n174
1n175
1n182
1n199
b10000001111111101000101111111110 n258
#96
0n199
#97
0n137
1n138
1n139
0n186
1n187
1n188
b110000110100 n253
b110000110100 n255
#104
1n0
1n66
b1111010101000000000000000010001 n239
#105
1n137
0n138
0n139
1n186
0n187
0n188
b110000001100 n253
b110000001100 n255
#106
1n62
#107
0n62
0n66
#108
1n199
#109
0n199
#110
0n137
1n138
1n139
0n186
1n187
1n188
b110000110100 n253
b110000110100 n255
#116
0n0
1n1
1n66
b1111010101000000000000000010010 n239
#117
1n137
0n138
0n139
1n186
0n187
0n188
b110000001100 n253
b110000001100 n255
#118
1n62
#119
0n62
0n66
#120
1n199
#121
0n199
#122
0n137
1n138
1n139
0n186
1n187
1n188
b110000110100 n253
b110000110100 n255
#128
1n0
1n66
b1111010101000000000000000010011 n239
#129
1n137
0n138
0n139
1n186
0n187
0n188
b110000001100 n253
b110000001100 n255
#130
1n62
#131
0n62
0n66
#132
1n199
#133
0n199
#134
0n137
1n138
1n139
0n186
1n187
1n188
b110000110100 n253
b110000110100 n255
#140
0n0
0n1
1n2
1n66
b1111010101000000000000000010100 n239
#141
1n137
0n138
0n139
1n186
0n187
0n188
b110000001100 n253
b110000001100 n255
#142
1n62
#143
0n62
0n66
#144
0n157
0n158
0n159
0n160
1n161
1n164
1n165
0n166
1n167
0n170
0n172
0n174
1n176
1n177
1n199
b10000111010101110110110000111110 n258
#145
0n199
#146
0n137
1n138
1n139
0n186
1n187
1n188
b110000110100 n253
b110000110100 n255
#152
1n0
1n66
b1111010101000000000000000010101 n239
#153
1n137
0n138
0n139
1n186
0n187
0n188
b110000001100 n253
b110000001100 n255
#154
1n62
#155
0n62
0n66
#156
1n199
#157
0n199
#158
0n137
1n138
1n139
0n186
1n187
1n188
b110000110100 n253
b110000110100 n255
#164
0n0
1n1
1n66
b1111010101000000000000000010110 n239
#165
1n137
0n138
0n139
1n186
0n187
0n188
b110000001100 n253
b110000001100 n255
#166
1n62
#167
0n62
0n66
#168
1n199
#169
0n199
#170
0n137
1n138
1n139
0n186
1n187
1n188
b110000110100 n253
b110000110100 n255
#176
1n0
1n66
b1111010101000000000000000010111 n239
#177
1n137
0n138
0n139
1n186
0n187
0n188
b110000001100 n253
b110000001100 n255
#178
1n62
#179
0n62
0n66
#180
1n199
#181
0n199
#182
0n137
1n138
1n139
0n186
1n187
1n188
b110000110100 n253
b110000110100 n255
