chipscope/sha1_wf_load.vcd
$date
   Dec 14, 2013 09:53:36
$end
$version
   ChipScope Pro Analyzer  14.7 P.20131013 (Build 14700.13.286.464)
$end
$timescale
    1ns
$end

$scope module new_project $end
$var wire  1  n0 processing_system7_0.M_AXI_GP0/MON_AXI_ARADDR[0] $end
$var wire  1  n1 processing_system7_0.M_AXI_GP0/MON_AXI_ARADDR[1] $end
$var wire  1  n2 processing_system7_0.M_AXI_GP0/MON_AXI_ARADDR[2] $end
$var wire  1  n3 processing_system7_0.M_AXI_GP0/MON_AXI_ARADDR[3] $end
$var wire  1  n4 processing_system7_0.M_AXI_GP0/MON_AXI_ARADDR[4] $end
$var wire  1  n5 processing_system7_0.M_AXI_GP0/MON_AXI_ARADDR[5] $end
$var wire  1  n6 processing_system7_0.M_AXI_GP0/MON_AXI_ARADDR[6] $end
$var wire  1  n7 processing_system7_0.M_AXI_GP0/MON_AXI_ARADDR[7] $end
$var wire  1  n8 processing_system7_0.M_AXI_GP0/MON_AXI_ARADDR[8] $end
$var wire  1  n9 processing_system7_0.M_AXI_GP0/MON_AXI_ARADDR[9] $end
$var wire  1  n10 processing_system7_0.M_AXI_GP0/MON_AXI_ARADDR[10] $end
$var wire  1  n11 processing_system7_0.M_AXI_GP0/MON_AXI_ARADDR[11] $end
$var wire  1  n12 processing_system7_0.M_AXI_GP0/MON_AXI_ARADDR[12] $end
$var wire  1  n13 processing_system7_0.M_AXI_GP0/MON_AXI_ARADDR[13] $end
$var wire  1  n14 processing_system7_0.M_AXI_GP0/MON_AXI_ARADDR[14] $end
$var wire  1  n15 processing_system7_0.M_AXI_GP0/MON_AXI_ARADDR[15] $end
$var wire  1  n16 processing_system7_0.M_AXI_GP0/MON_AXI_ARADDR[16] $end
$var wire  1  n17 processing_system7_0.M_AXI_GP0/MON_AXI_ARADDR[17] $end
$var wire  1  n18 processing_system7_0.M_AXI_GP0/MON_AXI_ARADDR[18] $end
$var wire  1  n19 processing_system7_0.M_AXI_GP0/MON_AXI_ARADDR[19] $end
$var wire  1  n20 processing_system7_0.M_AXI_GP0/MON_AXI_ARADDR[20] $end
$var wire  1  n21 processing_system7_0.M_AXI_GP0/MON_AXI_ARADDR[21] $end
$var wire  1  n22 processing_system7_0.M_AXI_GP0/MON_AXI_ARADDR[22] $end
$var wire  1  n23 processing_system7_0.M_AXI_GP0/MON_AXI_ARADDR[23] $end
$var wire  1  n24 processing_system7_0.M_AXI_GP0/MON_AXI_ARADDR[24] $end
$var wire  1  n25 processing_system7_0.M_AXI_GP0/MON_AXI_ARADDR[25] $end
$var wire  1  n26 processing_system7_0.M_AXI_GP0/MON_AXI_ARADDR[26] $end
$var wire  1  n27 processing_system7_0.M_AXI_GP0/MON_AXI_ARADDR[27] $end
$var wire  1  n28 processing_system7_0.M_AXI_GP0/MON_AXI_ARADDR[28] $end
$var wire  1  n29 processing_system7_0.M_AXI_GP0/MON_AXI_ARADDR[29] $end
$var wire  1  n30 processing_system7_0.M_AXI_GP0/MON_AXI_ARADDR[30] $end
$var wire  1  n31 processing_system7_0.M_AXI_GP0/MON_AXI_ARADDR[31] $end
$var wire  1  n32 processing_system7_0.M_AXI_GP0/MON_AXI_ARBURST[0] $end
$var wire  1  n33 processing_system7_0.M_AXI_GP0/MON_AXI_ARBURST[1] $end
$var wire  1  n34 processing_system7_0.M_AXI_GP0/MON_AXI_ARCACHE[0] $end
$var wire  1  n35 processing_system7_0.M_AXI_GP0/MON_AXI_ARCACHE[1] $end
$var wire  1  n36 processing_system7_0.M_AXI_GP0/MON_AXI_ARCACHE[2] $end
$var wire  1  n37 processing_system7_0.M_AXI_GP0/MON_AXI_ARCACHE[3] $end
$var wire  1  n38 processing_system7_0.M_AXI_GP0/MON_AXI_ARID[0] $end
$var wire  1  n39 processing_system7_0.M_AXI_GP0/MON_AXI_ARID[1] $end
$var wire  1  n40 processing_system7_0.M_AXI_GP0/MON_AXI_ARID[2] $end
$var wire  1  n41 processing_system7_0.M_AXI_GP0/MON_AXI_ARID[3] $end
$var wire  1  n42 processing_system7_0.M_AXI_GP0/MON_AXI_ARID[4] $end
$var wire  1  n43 processing_system7_0.M_AXI_GP0/MON_AXI_ARID[5] $end
$var wire  1  n44 processing_system7_0.M_AXI_GP0/MON_AXI_ARID[6] $end
$var wire  1  n45 processing_system7_0.M_AXI_GP0/MON_AXI_ARID[7] $end
$var wire  1  n46 processing_system7_0.M_AXI_GP0/MON_AXI_ARID[8] $end
$var wire  1  n47 processing_system7_0.M_AXI_GP0/MON_AXI_ARID[9] $end
$var wire  1  n48 processing_system7_0.M_AXI_GP0/MON_AXI_ARID[10] $end
$var wire  1  n49 processing_system7_0.M_AXI_GP0/MON_AXI_ARID[11] $end
$var wire  1  n50 processing_system7_0.M_AXI_GP0/MON_AXI_ARLEN[0] $end
$var wire  1  n51 processing_system7_0.M_AXI_GP0/MON_AXI_ARLEN[1] $end
$var wire  1  n52 processing_system7_0.M_AXI_GP0/MON_AXI_ARLEN[2] $end
$var wire  1  n53 processing_system7_0.M_AXI_GP0/MON_AXI_ARLEN[3] $end
$var wire  1  n54 processing_system7_0.M_AXI_GP0/MON_AXI_ARLEN[4] $end
$var wire  1  n55 processing_system7_0.M_AXI_GP0/MON_AXI_ARLEN[5] $end
$var wire  1  n56 processing_system7_0.M_AXI_GP0/MON_AXI_ARLEN[6] $end
$var wire  1  n57 processing_system7_0.M_AXI_GP0/MON_AXI_ARLEN[7] $end
$var wire  1  n58 processing_system7_0.M_AXI_GP0/MON_AXI_ARLOCK[0] $end
$var wire  1  n59 processing_system7_0.M_AXI_GP0/MON_AXI_ARPROT[0] $end
$var wire  1  n60 processing_system7_0.M_AXI_GP0/MON_AXI_ARPROT[1] $end
$var wire  1  n61 processing_system7_0.M_AXI_GP0/MON_AXI_ARPROT[2] $end
$var wire  1  n62 processing_system7_0.M_AXI_GP0/MON_AXI_ARREADY $end
$var wire  1  n63 processing_system7_0.M_AXI_GP0/MON_AXI_ARSIZE[0] $end
$var wire  1  n64 processing_system7_0.M_AXI_GP0/MON_AXI_ARSIZE[1] $end
$var wire  1  n65 processing_system7_0.M_AXI_GP0/MON_AXI_ARSIZE[2] $end
$var wire  1  n66 processing_system7_0.M_AXI_GP0/MON_AXI_ARVALID $end
$var wire  1  n67 processing_system7_0.M_AXI_GP0/MON_AXI_AWADDR[0] $end
$var wire  1  n68 processing_system7_0.M_AXI_GP0/MON_AXI_AWADDR[1] $end
$var wire  1  n69 processing_system7_0.M_AXI_GP0/MON_AXI_AWADDR[2] $end
$var wire  1  n70 processing_system7_0.M_AXI_GP0/MON_AXI_AWADDR[3] $end
$var wire  1  n71 processing_system7_0.M_AXI_GP0/MON_AXI_AWADDR[4] $end
$var wire  1  n72 processing_system7_0.M_AXI_GP0/MON_AXI_AWADDR[5] $end
$var wire  1  n73 processing_system7_0.M_AXI_GP0/MON_AXI_AWADDR[6] $end
$var wire  1  n74 processing_system7_0.M_AXI_GP0/MON_AXI_AWADDR[7] $end
$var wire  1  n75 processing_system7_0.M_AXI_GP0/MON_AXI_AWADDR[8] $end
$var wire  1  n76 processing_system7_0.M_AXI_GP0/MON_AXI_AWADDR[9] $end
$var wire  1  n77 processing_system7_0.M_AXI_GP0/MON_AXI_AWADDR[10] $end
$var wire  1  n78 processing_system7_0.M_AXI_GP0/MON_AXI_AWADDR[11] $end
$var wire  1  n79 processing_system7_0.M_AXI_GP0/MON_AXI_AWADDR[12] $end
$var wire  1  n80 processing_system7_0.M_AXI_GP0/MON_AXI_AWADDR[13] $end
$var wire  1  n81 processing_system7_0.M_AXI_GP0/MON_AXI_AWADDR[14] $end
$var wire  1  n82 processing_system7_0.M_AXI_GP0/MON_AXI_AWADDR[15] $end
$var wire  1  n83 processing_system7_0.M_AXI_GP0/MON_AXI_AWADDR[16] $end
$var wire  1  n84 processing_system7_0.M_AXI_GP0/MON_AXI_AWADDR[17] $end
$var wire  1  n85 processing_system7_0.M_AXI_GP0/MON_AXI_AWADDR[18] $end
$var wire  1  n86 processing_system7_0.M_AXI_GP0/MON_AXI_AWADDR[19] $end
$var wire  1  n87 processing_system7_0.M_AXI_GP0/MON_AXI_AWADDR[20] $end
$var wire  1  n88 processing_system7_0.M_AXI_GP0/MON_AXI_AWADDR[21] $end
$var wire  1  n89 processing_system7_0.M_AXI_GP0/MON_AXI_AWADDR[22] $end
$var wire  1  n90 processing_system7_0.M_AXI_GP0/MON_AXI_AWADDR[23] $end
$var wire  1  n91 processing_system7_0.M_AXI_GP0/MON_AXI_AWADDR[24] $end
$var wire  1  n92 processing_system7_0.M_AXI_GP0/MON_AXI_AWADDR[25] $end
$var wire  1  n93 processing_system7_0.M_AXI_GP0/MON_AXI_AWADDR[26] $end
$var wire  1  n94 processing_system7_0.M_AXI_GP0/MON_AXI_AWADDR[27] $end
$var wire  1  n95 processing_system7_0.M_AXI_GP0/MON_AXI_AWADDR[28] $end
$var wire  1  n96 processing_system7_0.M_AXI_GP0/MON_AXI_AWADDR[29] $end
$var wire  1  n97 processing_system7_0.M_AXI_GP0/MON_AXI_AWADDR[30] $end
$var wire  1  n98 processing_system7_0.M_AXI_GP0/MON_AXI_AWADDR[31] $end
$var wire  1  n99 processing_system7_0.M_AXI_GP0/MON_AXI_AWBURST[0] $end
$var wire  1  n100 processing_system7_0.M_AXI_GP0/MON_AXI_AWBURST[1] $end
$var wire  1  n101 processing_system7_0.M_AXI_GP0/MON_AXI_AWCACHE[0] $end
$var wire  1  n102 processing_system7_0.M_AXI_GP0/MON_AXI_AWCACHE[1] $end
$var wire  1  n103 processing_system7_0.M_AXI_GP0/MON_AXI_AWCACHE[2] $end
$var wire  1  n104 processing_system7_0.M_AXI_GP0/MON_AXI_AWCACHE[3] $end
$var wire  1  n105 processing_system7_0.M_AXI_GP0/MON_AXI_AWID[0] $end
$var wire  1  n106 processing_system7_0.M_AXI_GP0/MON_AXI_AWID[1] $end
$var wire  1  n107 processing_system7_0.M_AXI_GP0/MON_AXI_AWID[2] $end
$var wire  1  n108 processing_system7_0.M_AXI_GP0/MON_AXI_AWID[3] $end
$var wire  1  n109 processing_system7_0.M_AXI_GP0/MON_AXI_AWID[4] $end
$var wire  1  n110 processing_system7_0.M_AXI_GP0/MON_AXI_AWID[5] $end
$var wire  1  n111 processing_system7_0.M_AXI_GP0/MON_AXI_AWID[6] $end
$var wire  1  n112 processing_system7_0.M_AXI_GP0/MON_AXI_AWID[7] $end
$var wire  1  n113 processing_system7_0.M_AXI_GP0/MON_AXI_AWID[8] $end
$var wire  1  n114 processing_system7_0.M_AXI_GP0/MON_AXI_AWID[9] $end
$var wire  1  n115 processing_system7_0.M_AXI_GP0/MON_AXI_AWID[10] $end
$var wire  1  n116 processing_system7_0.M_AXI_GP0/MON_AXI_AWID[11] $end
$var wire  1  n117 processing_system7_0.M_AXI_GP0/MON_AXI_AWLEN[0] $end
$var wire  1  n118 processing_system7_0.M_AXI_GP0/MON_AXI_AWLEN[1] $end
$var wire  1  n119 processing_system7_0.M_AXI_GP0/MON_AXI_AWLEN[2] $end
$var wire  1  n120 processing_system7_0.M_AXI_GP0/MON_AXI_AWLEN[3] $end
$var wire  1  n121 processing_system7_0.M_AXI_GP0/MON_AXI_AWLEN[4] $end
$var wire  1  n122 processing_system7_0.M_AXI_GP0/MON_AXI_AWLEN[5] $end
$var wire  1  n123 processing_system7_0.M_AXI_GP0/MON_AXI_AWLEN[6] $end
$var wire  1  n124 processing_system7_0.M_AXI_GP0/MON_AXI_AWLEN[7] $end
$var wire  1  n125 processing_system7_0.M_AXI_GP0/MON_AXI_AWLOCK[0] $end
$var wire  1  n126 processing_system7_0.M_AXI_GP0/MON_AXI_AWPROT[0] $end
$var wire  1  n127 processing_system7_0.M_AXI_GP0/MON_AXI_AWPROT[1] $end
$var wire  1  n128 processing_system7_0.M_AXI_GP0/MON_AXI_AWPROT[2] $end
$var wire  1  n129 processing_system7_0.M_AXI_GP0/MON_AXI_AWREADY $end
$var wire  1  n130 processing_system7_0.M_AXI_GP0/MON_AXI_AWSIZE[0] $end
$var wire  1  n131 processing_system7_0.M_AXI_GP0/MON_AXI_AWSIZE[1] $end
$var wire  1  n132 processing_system7_0.M_AXI_GP0/MON_AXI_AWSIZE[2] $end
$var wire  1  n133 processing_system7_0.M_AXI_GP0/MON_AXI_AWVALID $end
$var wire  1  n134 processing_system7_0.M_AXI_GP0/MON_AXI_BID[0] $end
$var wire  1  n135 processing_system7_0.M_AXI_GP0/MON_AXI_BID[1] $end
$var wire  1  n136 processing_system7_0.M_AXI_GP0/MON_AXI_BID[2] $end
$var wire  1  n137 processing_system7_0.M_AXI_GP0/MON_AXI_BID[3] $end
$var wire  1  n138 processing_system7_0.M_AXI_GP0/MON_AXI_BID[4] $end
$var wire  1  n139 processing_system7_0.M_AXI_GP0/MON_AXI_BID[5] $end
$var wire  1  n140 processing_system7_0.M_AXI_GP0/MON_AXI_BID[6] $end
$var wire  1  n141 processing_system7_0.M_AXI_GP0/MON_AXI_BID[7] $end
$var wire  1  n142 processing_system7_0.M_AXI_GP0/MON_AXI_BID[8] $end
$var wire  1  n143 processing_system7_0.M_AXI_GP0/MON_AXI_BID[9] $end
$var wire  1  n144 processing_system7_0.M_AXI_GP0/MON_AXI_BID[10] $end
$var wire  1  n145 processing_system7_0.M_AXI_GP0/MON_AXI_BID[11] $end
$var wire  1  n146 processing_system7_0.M_AXI_GP0/MON_AXI_BREADY $end
$var wire  1  n147 processing_system7_0.M_AXI_GP0/MON_AXI_BRESP[0] $end
$var wire  1  n148 processing_system7_0.M_AXI_GP0/MON_AXI_BRESP[1] $end
$var wire  1  n149 processing_system7_0.M_AXI_GP0/MON_AXI_BVALID $end
$var wire  1  n150 processing_system7_0.M_AXI_GP0/MON_AXI_ARESETN $end
$var wire  1  n151 processing_system7_0.M_AXI_GP0/MON_AXI_RDATA[0] $end
$var wire  1  n152 processing_system7_0.M_AXI_GP0/MON_AXI_RDATA[1] $end
$var wire  1  n153 processing_system7_0.M_AXI_GP0/MON_AXI_RDATA[2] $end
$var wire  1  n154 processing_system7_0.M_AXI_GP0/MON_AXI_RDATA[3] $end
$var wire  1  n155 processing_system7_0.M_AXI_GP0/MON_AXI_RDATA[4] $end
$var wire  1  n156 processing_system7_0.M_AXI_GP0/MON_AXI_RDATA[5] $end
$var wire  1  n157 processing_system7_0.M_AXI_GP0/MON_AXI_RDATA[6] $end
$var wire  1  n158 processing_system7_0.M_AXI_GP0/MON_AXI_RDATA[7] $end
$var wire  1  n159 processing_system7_0.M_AXI_GP0/MON_AXI_RDATA[8] $end
$var wire  1  n160 processing_system7_0.M_AXI_GP0/MON_AXI_RDATA[9] $end
$var wire  1  n161 processing_system7_0.M_AXI_GP0/MON_AXI_RDATA[10] $end
$var wire  1  n162 processing_system7_0.M_AXI_GP0/MON_AXI_RDATA[11] $end
$var wire  1  n163 processing_system7_0.M_AXI_GP0/MON_AXI_RDATA[12] $end
$var wire  1  n164 processing_system7_0.M_AXI_GP0/MON_AXI_RDATA[13] $end
$var wire  1  n165 processing_system7_0.M_AXI_GP0/MON_AXI_RDATA[14] $end
$var wire  1  n166 processing_system7_0.M_AXI_GP0/MON_AXI_RDATA[15] $end
$var wire  1  n167 processing_system7_0.M_AXI_GP0/MON_AXI_RDATA[16] $end
$var wire  1  n168 processing_system7_0.M_AXI_GP0/MON_AXI_RDATA[17] $end
$var wire  1  n169 processing_system7_0.M_AXI_GP0/MON_AXI_RDATA[18] $end
$var wire  1  n170 processing_system7_0.M_AXI_GP0/MON_AXI_RDATA[19] $end
$var wire  1  n171 processing_system7_0.M_AXI_GP0/MON_AXI_RDATA[20] $end
$var wire  1  n172 processing_system7_0.M_AXI_GP0/MON_AXI_RDATA[21] $end
$var wire  1  n173 processing_system7_0.M_AXI_GP0/MON_AXI_RDATA[22] $end
$var wire  1  n174 processing_system7_0.M_AXI_GP0/MON_AXI_RDATA[23] $end
$var wire  1  n175 processing_system7_0.M_AXI_GP0/MON_AXI_RDATA[24] $end
$var wire  1  n176 processing_system7_0.M_AXI_GP0/MON_AXI_RDATA[25] $end
$var wire  1  n177 processing_system7_0.M_AXI_GP0/MON_AXI_RDATA[26] $end
$var wire  1  n178 processing_system7_0.M_AXI_GP0/MON_AXI_RDATA[27] $end
$var wire  1  n179 processing_system7_0.M_AXI_GP0/MON_AXI_RDATA[28] $end
$var wire  1  n180 processing_system7_0.M_AXI_GP0/MON_AXI_RDATA[29] $end
$var wire  1  n181 processing_system7_0.M_AXI_GP0/MON_AXI_RDATA[30] $end
$var wire  1  n182 processing_system7_0.M_AXI_GP0/MON_AXI_RDATA[31] $end
$var wire  1  n183 processing_system7_0.M_AXI_GP0/MON_AXI_RID[0] $end
$var wire  1  n184 processing_system7_0.M_AXI_GP0/MON_AXI_RID[1] $end
$var wire  1  n185 processing_system7_0.M_AXI_GP0/MON_AXI_RID[2] $end
$var wire  1  n186 processing_system7_0.M_AXI_GP0/MON_AXI_RID[3] $end
$var wire  1  n187 processing_system7_0.M_AXI_GP0/MON_AXI_RID[4] $end
$var wire  1  n188 processing_system7_0.M_AXI_GP0/MON_AXI_RID[5] $end
$var wire  1  n189 processing_system7_0.M_AXI_GP0/MON_AXI_RID[6] $end
$var wire  1  n190 processing_system7_0.M_AXI_GP0/MON_AXI_RID[7] $end
$var wire  1  n191 processing_system7_0.M_AXI_GP0/MON_AXI_RID[8] $end
$var wire  1  n192 processing_system7_0.M_AXI_GP0/MON_AXI_RID[9] $end
$var wire  1  n193 processing_system7_0.M_AXI_GP0/MON_AXI_RID[10] $end
$var wire  1  n194 processing_system7_0.M_AXI_GP0/MON_AXI_RID[11] $end
$var wire  1  n195 processing_system7_0.M_AXI_GP0/MON_AXI_RLAST $end
$var wire  1  n196 processing_system7_0.M_AXI_GP0/MON_AXI_RREADY $end
$var wire  1  n197 processing_system7_0.M_AXI_GP0/MON_AXI_RRESP[0] $end
$var wire  1  n198 processing_system7_0.M_AXI_GP0/MON_AXI_RRESP[1] $end
$var wire  1  n199 RVALID $end
$var wire  1  n200 processing_system7_0.M_AXI_GP0/MON_AXI_WDATA[0] $end
$var wire  1  n201 processing_system7_0.M_AXI_GP0/MON_AXI_WDATA[1] $end
$var wire  1  n202 processing_system7_0.M_AXI_GP0/MON_AXI_WDATA[2] $end
$var wire  1  n203 processing_system7_0.M_AXI_GP0/MON_AXI_WDATA[3] $end
$var wire  1  n204 processing_system7_0.M_AXI_GP0/MON_AXI_WDATA[4] $end
$var wire  1  n205 processing_system7_0.M_AXI_GP0/MON_AXI_WDATA[5] $end
$var wire  1  n206 processing_system7_0.M_AXI_GP0/MON_AXI_WDATA[6] $end
$var wire  1  n207 processing_system7_0.M_AXI_GP0/MON_AXI_WDATA[7] $end
$var wire  1  n208 processing_system7_0.M_AXI_GP0/MON_AXI_WDATA[8] $end
$var wire  1  n209 processing_system7_0.M_AXI_GP0/MON_AXI_WDATA[9] $end
$var wire  1  n210 processing_system7_0.M_AXI_GP0/MON_AXI_WDATA[10] $end
$var wire  1  n211 processing_system7_0.M_AXI_GP0/MON_AXI_WDATA[11] $end
$var wire  1  n212 processing_system7_0.M_AXI_GP0/MON_AXI_WDATA[12] $end
$var wire  1  n213 processing_system7_0.M_AXI_GP0/MON_AXI_WDATA[13] $end
$var wire  1  n214 processing_system7_0.M_AXI_GP0/MON_AXI_WDATA[14] $end
$var wire  1  n215 processing_system7_0.M_AXI_GP0/MON_AXI_WDATA[15] $end
$var wire  1  n216 processing_system7_0.M_AXI_GP0/MON_AXI_WDATA[16] $end
$var wire  1  n217 processing_system7_0.M_AXI_GP0/MON_AXI_WDATA[17] $end
$var wire  1  n218 processing_system7_0.M_AXI_GP0/MON_AXI_WDATA[18] $end
$var wire  1  n219 processing_system7_0.M_AXI_GP0/MON_AXI_WDATA[19] $end
$var wire  1  n220 processing_system7_0.M_AXI_GP0/MON_AXI_WDATA[20] $end
$var wire  1  n221 processing_system7_0.M_AXI_GP0/MON_AXI_WDATA[21] $end
$var wire  1  n222 processing_system7_0.M_AXI_GP0/MON_AXI_WDATA[22] $end
$var wire  1  n223 processing_system7_0.M_AXI_GP0/MON_AXI_WDATA[23] $end
$var wire  1  n224 processing_system7_0.M_AXI_GP0/MON_AXI_WDATA[24] $end
$var wire  1  n225 processing_system7_0.M_AXI_GP0/MON_AXI_WDATA[25] $end
$var wire  1  n226 processing_system7_0.M_AXI_GP0/MON_AXI_WDATA[26] $end
$var wire  1  n227 processing_system7_0.M_AXI_GP0/MON_AXI_WDATA[27] $end
$var wire  1  n228 processing_system7_0.M_AXI_GP0/MON_AXI_WDATA[28] $end
$var wire  1  n229 processing_system7_0.M_AXI_GP0/MON_AXI_WDATA[29] $end
$var wire  1  n230 processing_system7_0.M_AXI_GP0/MON_AXI_WDATA[30] $end
$var wire  1  n231 processing_system7_0.M_AXI_GP0/MON_AXI_WDATA[31] $end
$var wire  1  n232 processing_system7_0.M_AXI_GP0/MON_AXI_WLAST $end
$var wire  1  n233 processing_system7_0.M_AXI_GP0/MON_AXI_WREADY $end
$var wire  1  n234 processing_system7_0.M_AXI_GP0/MON_AXI_WSTRB[0] $end
$var wire  1  n235 processing_system7_0.M_AXI_GP0/MON_AXI_WSTRB[1] $end
$var wire  1  n236 processing_system7_0.M_AXI_GP0/MON_AXI_WSTRB[2] $end
$var wire  1  n237 processing_system7_0.M_AXI_GP0/MON_AXI_WSTRB[3] $end
$var wire  1  n238 WVALID $end
$var wire 32 n239 ARADDR $end
$var wire 32 n240 AWADDR $end
$var wire 2 n241 processing_system7_0.M_AXI_GP0/MON_AXI_ARBURST $end
$var wire 4 n242 processing_system7_0.M_AXI_GP0/MON_AXI_ARCACHE $end
$var wire 12 n243 processing_system7_0.M_AXI_GP0/MON_AXI_ARID $end
$var wire 8 n244 processing_system7_0.M_AXI_GP0/MON_AXI_ARLEN $end
$var wire 3 n245 processing_system7_0.M_AXI_GP0/MON_AXI_ARPROT $end
$var wire 3 n246 processing_system7_0.M_AXI_GP0/MON_AXI_ARSIZE $end
$var wire 2 n247 processing_system7_0.M_AXI_GP0/MON_AXI_AWBURST $end
$var wire 4 n248 processing_system7_0.M_AXI_GP0/MON_AXI_AWCACHE $end
$var wire 12 n249 processing_system7_0.M_AXI_GP0/MON_AXI_AWID $end
$var wire 8 n250 processing_system7_0.M_AXI_GP0/MON_AXI_AWLEN $end
$var wire 3 n251 processing_system7_0.M_AXI_GP0/MON_AXI_AWPROT $end
$var wire 3 n252 processing_system7_0.M_AXI_GP0/MON_AXI_AWSIZE $end
$var wire 12 n253 processing_system7_0.M_AXI_GP0/MON_AXI_BID $end
$var wire 2 n254 processing_system7_0.M_AXI_GP0/MON_AXI_BRESP $end
$var wire 12 n255 processing_system7_0.M_AXI_GP0/MON_AXI_RID $end
$var wire 2 n256 processing_system7_0.M_AXI_GP0/MON_AXI_RRESP $end
$var wire 4 n257 processing_system7_0.M_AXI_GP0/MON_AXI_WSTRB $end
$var wire 32 n258 RDATA $end
$var wire 32 n259 WDATA $end
$upscope $end
$enddefinitions $end

#0
0n0
0n1
1n2
0n3
0n4
0n5
0n6
0n7
0n8
0n9
0n10
0n11
0n12
0n13
0n14
0n15
0n16
0n17
0n18
0n19
0n20
1n21
0n22
1n23
0n24
1n25
0n26
1n27
1n28
1n29
1n30
0n31
1n32
0n33
1n34
0n35
0n36
0n37
0n38
0n39
1n40
1n41
0n42
0n43
0n44
0n45
0n46
0n47
1n48
1n49
0n50
0n51
0n52
0n53
0n54
0n55
0n56
0n57
0n58
1n59
0n60
0n61
0n62
0n63
1n64
0n65
0n66
1n67
1n68
1n69
1n70
0n71
1n72
0n73
1n74
0n75
1n76
1n77
1n78
1n79
1n80
1n81
1n82
0n83
0n84
1n85
1n86
0n87
1n88
1n89
1n90
1n91
1n92
0n93
1n94
0n95
1n96
0n97
1n98
1n99
1n100
1n101
1n102
0n103
1n104
1n105
1n106
1n107
1n108
1n109
1n110
1n111
1n112
0n113
1n114
0n115
1n116
1n117
1n118
1n119
1n120
0n121
0n122
0n123
0n124
0n125
1n126
1n127
1n128
0n129
1n130
1n131
0n132
0n133
0n134
0n135
1n136
1n137
0n138
0n139
0n140
0n141
0n142
0n143
1n144
1n145
1n146
0n147
0n148
0n149
1n150
1n151
0n152
0n153
0n154
0n155
0n156
0n157
0n158
0n159
0n160
0n161
0n162
0n163
0n164
0n165
0n166
0n167
0n168
0n169
0n170
0n171
0n172
0n173
0n174
0n175
0n176
0n177
0n178
0n179
0n180
0n181
0n182
0n183
0n184
1n185
1n186
0n187
0n188
0n189
0n190
0n191
0n192
1n193
1n194
1n195
1n196
0n197
0n198
1n199
0n200
0n201
0n202
0n203
1n204
1n205
1n206
0n207
0n208
0n209
0n210
0n211
1n212
1n213
1n214
1n215
1n216
1n217
0n218
0n219
0n220
1n221
1n222
1n223
1n224
1n225
1n226
1n227
0n228
1n229
1n230
1n231
1n232
0n233
1n234
1n235
1n236
1n237
0n238
b1111010101000000000000000000100 n239
b10101011111011001111111010101111 n240
b1 n241
b1 n242
b110000001100 n243
b0 n244
b1 n245
b10 n246
b11 n247
b1011 n248
b101011111111 n249
b1111 n250
b111 n251
b11 n252
b110000001100 n253
b0 n254
b110000001100 n255
b0 n256
b1111 n257
b1 n258
b11101111111000111111000001110000 n259
#1
0n199
#2
1n134
1n135
1n138
1n139
1n140
1n141
1n143
0n144
1n183
1n184
1n187
1n188
1n189
1n190
1n192
0n193
b101011111111 n253
b101011111111 n255
#3
1n147
1n148
0n151
0n195
1n197
1n198
b11 n254
b11 n256
b0 n258
#57
0n67
0n68
0n70
0n74
0n76
0n77
0n78
0n79
0n80
0n81
0n82
0n85
0n86
0n89
0n91
1n95
1n97
0n98
0n100
0n102
0n104
0n105
0n106
0n108
0n111
0n112
0n114
1n115
0n117
0n118
0n119
0n120
0n127
0n128
0n130
0n131
1n133
1n200
1n201
1n202
0n205
0n206
0n212
0n213
0n214
0n215
0n216
0n217
0n221
0n222
0n223
0n224
0n225
0n226
0n227
0n229
0n230
0n231
0n235
0n236
0n237
1n238
b1111010101000000000000000100100 n240
b1 n247
b1 n248
b110000110100 n249
b0 n250
b1 n251
b0 n252
b1 n257
b10111 n259
#58
0n134
0n135
0n137
0n140
0n141
0n143
1n144
0n183
0n184
0n186
0n189
0n190
0n192
1n193
b110000110100 n253
b110000110100 n255
#59
1n129
0n147
0n148
1n151
1n195
0n197
0n198
b0 n254
b0 n256
b1 n258
#60
0n129
0n133
1n233
#61
1n149
0n233
0n238
#62
0n149
#72
1n67
1n133
b1111010101000000000000000100101 n240
#73
1n208
1n209
1n210
1n212
0n234
1n235
1n238
b10 n257
b1011100010111 n259
#74
1n129
#75
0n129
0n133
1n233
#76
1n149
0n233
0n238
#77
0n149
#87
0n67
1n68
1n133
b1111010101000000000000000100110 n240
#88
1n216
1n217
1n218
1n220
0n235
1n236
1n238
b100 n257
b101110001011100010111 n259
#89
1n129
#90
0n129
0n133
1n233
#91
1n149
0n233
0n238
#92
0n149
#102
1n67
1n133
b1111010101000000000000000100111 n240
#103
1n224
1n225
1n226
1n228
0n236
1n237
1n238
b1000 n257
b10111000101110001011100010111 n259
#104
1n129
#105
0n129
0n133
1n233
#106
1n149
0n233
0n238
#107
0n149
#117
0n67
0n68
0n69
1n70
1n133
b1111010101000000000000000101000 n240
#118
0n208
0n209
0n210
0n212
0n216
0n217
0n218
0n220
0n224
0n225
0n226
0n228
1n234
0n237
1n238
b1 n257
b10111 n259
#119
1n129
#120
0n129
0n133
1n233
#121
1n149
0n233
0n238
#122
0n149
#132
1n67
1n133
b1111010101000000000000000101001 n240
#133
1n208
1n209
1n210
1n212
0n234
1n235
1n238
b10 n257
b1011100010111 n259
#134
1n129
#135
0n129
0n133
1n233
#136
1n149
0n233
0n238
#137
0n149
#147
0n67
1n68
1n133
b1111010101000000000000000101010 n240
#148
1n216
1n217
1n218
1n220
0n235
1n236
1n238
b100 n257
b101110001011100010111 n259
#149
1n129
#150
0n129
0n133
1n233
#151
1n149
0n233
0n238
#152
0n149
#162
1n67
1n133
b1111010101000000000000000101011 n240
#163
1n224
1n225
1n226
1n228
0n236
1n237
1n238
b1000 n257
b10111000101110001011100010111 n259
#164
1n129
#165
0n129
0n133
1n233
#166
1n149
0n233
0n238
#167
0n149
#177
0n67
0n68
1n69
1n133
b1111010101000000000000000101100 n240
#178
1n234
0n237
1n238
b1 n257
#179
1n129
#180
0n129
0n133
1n233
#181
1n149
0n233
0n238
#182
0n149
#192
1n67
1n133
b1111010101000000000000000101101 n240
#193
0n234
1n235
1n238
b10 n257
#194
1n129
#195
0n129
0n133
1n233
#196
1n149
0n233
0n238
#197
0n149
#207
0n67
1n68
1n133
b1111010101000000000000000101110 n240
#208
0n235
1n236
1n238
b100 n257
#209
1n129
#210
0n129
0n133
1n233
#211
1n149
0n233
0n238
#212
0n149
#222
1n67
1n133
b1111010101000000000000000101111 n240
#223
0n236
1n237
1n238
b1000 n257
#224
1n129
#225
0n129
0n133
1n233
#226
1n149
0n233
0n238
#227
0n149
#237
0n67
0n68
0n69
0n70
1n71
1n133
b1111010101000000000000000110000 n240
#238
1n234
0n237
1n238
b1 n257
#239
1n129
#240
0n129
0n133
1n233
#241
1n149
0n233
0n238
#242
0n149
#252
1n67
1n133
b1111010101000000000000000110001 n240
#253
0n234
1n235
1n238
b10 n257
#254
1n129
#255
0n129
0n133
1n233
#256
1n149
0n233
0n238
#257
0n149
#267
0n67
1n68
1n133
b1111010101000000000000000110010 n240
#268
0n235
1n236
1n238
b100 n257
#269
1n129
#270
0n129
0n133
1n233
#271
1n149
0n233
0n238
#272
0n149
#282
1n67
1n133
b1111010101000000000000000110011 n240
